1. Make Sample and Species Tables
…
Warning: Expected 3 pieces. Missing pieces filled with `NA` in 310 rows [1, 2, 3, 5, 6,
7, 8, 10, 11, 12, 13, 14, 15, 16, 17, 18, 20, 21, 22, 23, ...].

Check for duplicated names

There are r
print(sum(duplicated(List_of_species$species))) duplicated
entries at the species level

bind_rows(List_of_species[duplicated(List_of_species$species),],
          List_of_species[duplicated(List_of_species$species,fromLast = T),]) %>% 
  arrange(species)

# A tibble: 22 × 21
   scientific_name   species subspecies common_name family subfamily cites_annex
   <chr>             <chr>   <chr>      <chr>       <chr>  <chr>     <chr>      
 1 Elephas maximus … Elepha… sumatranus Sumatran e… Eleph… <NA>      <NA>       
 2 Elephas maximus   Elepha… <NA>       Asian Elep… Eleph… <NA>      I          
 3 Equus quagga bur… Equus … burchelli  Burchell's… Equid… <NA>      -          
 4 Equus quagga cha… Equus … chapmani   Chapman's … Equid… <NA>      II?        
 5 Furcifer pardalis Furcif… <NA>       Panther Ch… Chama… <NA>      <NA>       
 6 Furcifer pardalis Furcif… <NA>       Panther ch… Chama… <NA>      II         
 7 Macroprotodon br… Macrop… <NA>       Iberian Fa… Colub… <NA>      <NA>       
 8 Macroprotodon br… Macrop… <NA>       Iberian Fa… Colub… <NA>      <NA>       
 9 Oryctolagus cuni… Orycto… ibicea     <NA>        Lepor… <NA>      -          
10 Oryctolagus cuni… Orycto… <NA>       European r… Lepor… <NA>      -          
# ℹ 12 more rows
# ℹ 14 more variables: iucn_category <fct>, individuals <dbl>, sex <chr>,
#   superclass <chr>, order <fct>, cell_line <chr>, karyotype <chr>, dna <chr>,
#   rna <chr>, wgs_sequencing <chr>, rna_seq <chr>, i_psc <chr>,
#   tissue_of_origin <chr>, alternative_name <chr>
…
## some of the taxonomic ids in the TOGA table are not at the species level, so we need to get the correct taxonomic id for the species level to match with the GOAT database
taxids_species <- Toga1$species_taxonomy_id %>%
  set_names() %>%
  map_dfr(function(tid) {
    classification(tid, db = "ncbi")[[1]] %>%
      as_tibble() %>%
      filter(rank == "species") %>%
      select(species_name = name, species_taxid = id)
  }, .id = "original_taxid") %>%
  mutate(original_taxid = as.integer(original_taxid))

taxids_species

# A tibble: 1,059 × 3
   original_taxid species_name              species_taxid
            <int> <chr>                     <chr>        
 1          57068 Acanthisitta chloris      57068        
 2          57068 Acanthisitta chloris      57068        
 3           8957 Astur gentilis            8957         
 4         387753 Astur atricapillus        3149181      
 5         451385 Acridotheres javanicus    451385       
 6          39621 Acrocephalus arundinaceus 39621        
 7         481813 Acrocephalus kingi        2944898      
 8         126889 Acrocephalus scirpaceus   48156        
 9          73327 Aegithalos caudatus       73327        
10          48278 Aegotheles bennettii      48278        
# ℹ 1,049 more rows
…
taxids_species<-bind_rows(taxids_species, taxids_species2) %>% 
  distinct()

taxids_species[c(duplicated(taxids_species$species_taxid)|duplicated(taxids_species$species_taxid,fromLast = T)),] %>% 
  arrange(species_taxid)

# A tibble: 115 × 3
   original_taxid species_name              species_taxid
            <int> <chr>                     <chr>        
 1         230844 Peromyscus maniculatus    10042        
 2         372063 Peromyscus maniculatus    10042        
 3          10090 Mus musculus              10090        
 4          57486 Mus musculus              10090        
 5          13515 Eulemur fulvus            13515        
 6          47178 Eulemur fulvus            13515        
 7        1676003 Willisornis vidua         1566151      
 8        1566151 Willisornis vidua         1566151      
 9        2916761 Passerculus sandwichensis 161624       
10         161624 Passerculus sandwichensis 161624       
# ℹ 105 more rows
…
